…
Next, check what are the most commonly observed values for snowfall.

``` r
noaa_df %>% 
  count(snow, name = "snow_num") %>% 
  mutate(rank = min_rank(desc(snow_num))) %>% 
  arrange(rank)
```

    ## # A tibble: 282 x 3
    ##     snow snow_num  rank
    ##    <int>    <int> <int>
    ##  1     0  2008508     1
    ##  2    NA   381221     2
    ##  3    25    31022     3
    ##  4    13    23095     4
    ##  5    51    18274     5
    ##  6    76    10173     6
    ##  7     8     9962     7
    ##  8     5     9748     8
    ##  9    38     9197     9
    ## 10     3     8790    10
    ## # … with 272 more rows
…
